decoder_waveforms.vcd
$date
     Nov 15, 2014       17:37:37
$end

$version
              SystemC 2.3.0_pub_rev_20111121-OSCI --- Oct 17 2014 20:24:25
$end

$timescale
     1 ps
$end

$scope module SystemC $end
$var wire    1  aaa  t_a       $end
$var wire    1  aab  t_b       $end
$var wire    1  aac  t_c       $end
$upscope $end
$enddefinitions  $end

$comment
All initial values are dumped below at time 0 sec = 0 timescale units.
$end

$dumpvars
1aaa
0aab
1aac
$end

#5000
0aaa
1aab
0aac

#10000
1aaa
0aab
1aac

#15000
0aaa
1aab
0aac

#20000
1aaa
0aab
1aac

#25000
0aaa
1aab
0aac

#30000
1aaa
0aab
1aac

#35000
0aaa
1aab
0aac

#40000
1aaa
0aab
1aac

#45000
0aaa
1aab
0aac

#50000
1aaa
0aab
1aac

#55000
0aaa
1aab
0aac

#60000
1aaa
0aab
1aac

#65000
0aaa
1aab
0aac

#70000
1aaa
0aab
1aac

#75000
0aaa
1aab
0aac

#80000
1aaa
0aab
1aac

#85000
0aaa
1aab
0aac

#90000
1aaa
0aab
1aac

#95000
0aaa
1aab
0aac

